{
  "artists" : [ {
    "songs" : [ {
      "radios" : [ "Европа Плюс" ],
      "name" : "Don't Speak (feat. Kaii)"
    } ],
    "name" : "Chaël"
  }, {
    "songs" : [ {
      "radios" : [ "Европа Плюс" ],
      "name" : "Butterfly Effect"
    }, {
      "radios" : [ "Европа Плюс", "NRJ" ],
      "name" : "Goosebumps (Remix)"
    }, {
      "radios" : [ "Европа Плюс" ],
      "name" : "HIGHEST IN THE ROOM"
    }, {
      "radios" : [ "Европа Плюс" ],
      "name" : "SICKO MODE ft. Drake, Swae Lee"
    }, {
      "radios" : [ "Европа Плюс" ],
      "name" : "Stargazing"
    } ],
    "name" : "Travis Scott"
  }, {
    "songs" : [ {
      "radios" : [ "Европа Плюс" ],
      "name" : "Alone"
    }, {
      "radios" : [ "Европа Плюс" ],
      "name" : "Be Kind"
    }, {
      "radios" : [ "Европа Плюс", "NRJ" ],
      "name" : "FRIENDS"
    }, {
      "radios" : [ "Европа Плюс" ],
      "name" : "Happier"
    }, {
      "radios" : [ "Европа Плюс" ],
      "name" : "Leave Before You Love Me"
    }, {
      "radios" : [ "Европа Плюс" ],
      "name" : "Ok Not To Be Ok"
    }, {
      "radios" : [ "Европа Плюс" ],
      "name" : "One Thing Right"
    }, {
      "radios" : [ "Европа Плюс", "NRJ" ],
      "name" : "Too Much"
    }, {
      "radios" : [ "NRJ" ],
      "name" : "Silence"
    } ],
    "name" : "Marshmello"
  }, {
    "songs" : [ {
      "radios" : [ "Европа Плюс" ],
      "name" : "Leave Before You Love Me"
    }, {
      "radios" : [ "Европа Плюс" ],
      "name" : "Remember This"
    }, {
      "radios" : [ "Европа Плюс", "NRJ" ],
      "name" : "Sucker"
    }, {
      "radios" : [ "Европа Плюс" ],
      "name" : "What A Man Gotta Do"
    }, {
      "radios" : [ "Европа Плюс" ],
      "name" : "Who's In Your Head"
    }, {
      "radios" : [ "Европа Плюс", "NRJ" ],
      "name" : "X (feat. KAROL G)"
    } ],
    "name" : "Jonas Brothers"
  }, {
    "songs" : [ {
      "radios" : [ "Европа Плюс" ],
      "name" : "Boom"
    }, {
      "radios" : [ "Европа Плюс" ],
      "name" : "Carry You Home"
    }, {
      "radios" : [ "Европа Плюс" ],
      "name" : "Chemicals (feat. Thomas Troelsen)"
    }, {
      "radios" : [ "Европа Плюс" ],
      "name" : "Coffee (Give Me Something)"
    }, {
      "radios" : [ "Европа Плюс" ],
      "name" : "Coming Home (ft. Mesto)"
    }, {
      "radios" : [ "Европа Плюс" ],
      "name" : "Don't Be Shy"
    }, {
      "radios" : [ "Европа Плюс" ],
      "name" : "God Is A Dancer"
    }, {
      "radios" : [ "Европа Плюс" ],
      "name" : "Jackie Chan"
    }, {
      "radios" : [ "Европа Плюс" ],
      "name" : "Red Lights"
    }, {
      "radios" : [ "Европа Плюс" ],
      "name" : "Ritual"
    }, {
      "radios" : [ "Европа Плюс" ],
      "name" : "Secrets"
    }, {
      "radios" : [ "Европа Плюс" ],
      "name" : "The Business"
    }, {
      "radios" : [ "Европа Плюс" ],
      "name" : "This Is House"
    } ],
    "name" : "Tiësto"
  }, {
    "songs" : [ {
      "radios" : [ "NRJ" ],
      "name" : "Manana"
    }, {
      "radios" : [ "NRJ" ],
      "name" : "Magic"
    }, {
      "radios" : [ "NRJ" ],
      "name" : "La Cancion"
    }, {
      "radios" : [ "NRJ" ],
      "name" : "Faith"
    } ],
    "name" : "TIM3BOMB"
  } ]
}